{
  "initial": "dark",
  "transition": {
    "dark": "light",
    "light": "dark"
  },
  "style": {
    "_": {
      "transition": "0.4s linear",
      "monospace": "'Averia Serif Libre', serif",
      "gutter": {
        "base": 3
      },
      "linkHover": "#0D3349",
      "bgLight": "rgba(0, 0, 0, 0.1)",
      "bgDark": "rgba(0, 0, 0, 0.3)",
      "formReq": {
        "optional": {
        },
        "required": {
          "textDecoration": "underline"
        }
      }
    },
    "dark": {
      "name": "dark",
      "bgPage": "#1c1d2a",
      "bgSpecial": "#0b0c15",
      "bgNav": "rgba(50, 50, 50, 0.3)",
      "bgNav1": "rgba(50, 50, 50, 0.2)",
      "bgNav2": "rgba(50, 50, 50, 0.1)",
      "bgNav3": "rgba(50, 50, 50, 0.1)",
      "bgNavItemActive": "rgba(13, 51, 73, 0.1)",
      "bgNavItemActivePress": "rgba(13, 51, 73, 0.3)",
      "linkColor": "#38958c",
      "btnActive": "#02111a",
      "linkActive": "#11565e",
      "textColorLight": "#3f3f3f",
      "textColor": "#a0a0a0",
      "errorColor": "#ab1b1b",
      "borderLight": "rgba(50, 50, 50, 0.3)",
      "input": {
        "borderColor": "#a0a0a0",
        "background": "#0D3349"
      },
      "accent": {
        "blue": "#11565e"
      },
      "drop": {
        "area": "rgba(50, 50, 50, 0.2)",
        "area_targeted": "rgba(50, 50, 50, 0.4)",
        "item": "rgba(0, 0, 0, 0.4)",
        "item_dragging_err": "#271f25"
      }
    },
    "light": {
      "name": "light",
      "bgPage": "#f2f2f2",
      "bgSpecial": "#d6e6e8",
      "bgNav": "#c2e6ea",
      "bgNav1": "#d3e8ea",
      "bgNav2": "#dfeef0",
      "bgNav3": "#dfeef0",
      "bgNavItemActive": "rgba(13, 51, 73, 0.1)",
      "bgNavItemActivePress": "rgba(13, 51, 73, 0.3)",
      "linkColor": "#0044aa",
      "btnActive": "#d6e7ff",
      "linkActive": "#2b81af",
      "textColorLight": "#98a199",
      "textColor": "#1c1d2a",
      "errorColor": "#870e05",
      "borderLight": "rgba(50, 50, 50, 0.1)",
      "input": {
        "borderColor": "#1c1d2a",
        "background": "#dfeef0"
      },
      "accent": {
        "blue": "#2b81af"
      },
      "drop": {
        "area": "rgba(50, 50, 50, 0.2)",
        "area_targeted": "rgba(50, 50, 50, 0.4)",
        "item": "rgba(0, 0, 0, 0.15)",
        "item_dragging_err": "#ae979a"
      }
    }
  }
}